…
### mean by condition x round

``` r
### create df where each row represents a condition x round.
df_by_cond_round = df_all %>% 
  group_by(condition, round, speaker) %>% 
  summarize_data()

df_by_cond_round
```

    ## # A tibble: 36 × 9
    ##    condition round speaker     n mean_dis sd_dis se_dis lci_dis uci_dis
    ##    <fct>     <fct> <fct>   <int>    <dbl>  <dbl>  <dbl>   <dbl>   <dbl>
    ##  1 SymAV     1     A          49    0.306  0.161 0.0230   0.260   0.352
    ##  2 SymAV     1     B          49    0.287  0.133 0.0190   0.248   0.325
    ##  3 SymAV     2     A         144    0.313  0.149 0.0124   0.288   0.337
    ##  4 SymAV     2     B         106    0.284  0.135 0.0131   0.258   0.310
    ##  5 SymAV     3     A          78    0.302  0.142 0.0161   0.270   0.334
    ##  6 SymAV     3     B          98    0.305  0.145 0.0146   0.276   0.334
    ##  7 SymAV     4     A          70    0.312  0.150 0.0179   0.276   0.348
    ##  8 SymAV     4     B          62    0.300  0.160 0.0203   0.259   0.340
    ##  9 SymAV     5     A          45    0.314  0.137 0.0204   0.272   0.355
    ## 10 SymAV     5     B          41    0.292  0.133 0.0208   0.250   0.335
    ## # ℹ 26 more rows
…
df_bf_new = df_bf %>% 
  rbind(df_bf_temp) %>% 
  mutate(Effect = factor(Effect,
                         levels = c("AO--SymAV", "AO--AsymAV", "AsymAV--SymAV", "Round",
                                    "AO--SymAV:Round", "AO--AsymAV:Round", "AsymAV--SymAV:Round")),
         Predictor = factor(Predictor,
                            levels = c("Visibility", "Round", "Interaction")))

df_bf_new %>% arrange(Effect, sd)
```

    ## # A tibble: 35 × 6
    ##    size     sd prior      Effect      BF10 Predictor 
    ##    <chr> <dbl> <chr>      <fct>      <dbl> <fct>     
    ##  1 xs     0.05 N(0, 0.05) AO--SymAV  0.982 Visibility
    ##  2 s      0.1  N(0, 0.1)  AO--SymAV  0.885 Visibility
    ##  3 m      0.2  N(0, 0.2)  AO--SymAV  0.617 Visibility
    ##  4 l      0.3  N(0, 0.3)  AO--SymAV  0.465 Visibility
    ##  5 xl     0.5  N(0, 0.5)  AO--SymAV  0.295 Visibility
    ##  6 xs     0.05 N(0, 0.05) AO--AsymAV 0.889 Visibility
    ##  7 s      0.1  N(0, 0.1)  AO--AsymAV 0.676 Visibility
    ##  8 m      0.2  N(0, 0.2)  AO--AsymAV 0.399 Visibility
    ##  9 l      0.3  N(0, 0.3)  AO--AsymAV 0.279 Visibility
    ## 10 xl     0.5  N(0, 0.5)  AO--AsymAV 0.174 Visibility
    ## # ℹ 25 more rows
…
