…
df_bf_new %>% arrange(Effect, sd)
```

    ## # A tibble: 120 × 6
    ##    size     sd prior     Effect      BF10 Predictor 
    ##    <chr> <dbl> <chr>     <fct>      <dbl> <fct>     
    ##  1 xs      0.1 N(0, 0.1) AO--SymAV   1.29 Visibility
    ##  2 s       0.3 N(0, 0.3) AO--SymAV   2.92 Visibility
    ##  3 m       0.5 N(0, 0.5) AO--SymAV   3.21 Visibility
    ##  4 l       0.7 N(0, 0.7) AO--SymAV   2.98 Visibility
    ##  5 xl      1   N(0, 1)   AO--SymAV   2.79 Visibility
    ##  6 xs      0.1 N(0, 0.1) AO--AsymAV  1.36 Visibility
    ##  7 s       0.3 N(0, 0.3) AO--AsymAV  3.05 Visibility
    ##  8 m       0.5 N(0, 0.5) AO--AsymAV  4.06 Visibility
    ##  9 l       0.7 N(0, 0.7) AO--AsymAV  3.93 Visibility
    ## 10 xl      1   N(0, 1)   AO--AsymAV  3.68 Visibility
    ## # ℹ 110 more rows
…
